[
    {
        "url": "/docs/index.html",
        "label": "Docs",
        "sub": [
            { "url": "/docs/install.html", "label": "Installation" },
            { "url": "/docs/usage.html", "label": "Usage" },
            { "url": "/docs/showcase.html", "label": "Showcase" },
            { "url": "/docs/faq.html", "label": "FAQ" }
        ]
    },
    {
        "url": "/about.html",
        "label": "About"
    }
]
